memory_initialization_radix=2;
memory_initialization_vector=
00000001101010101101001010111101000000010011000011011111101011000000000010100010100110010110110100000000000000000000000000000000111111110101110101100110100100111111111011001111001000000101010011111110010101010010110101000011 
00000001101101001100001111100100000000010011011111111001101000110000000010100110011000110000000100000000000000000000000000000000111111110101100110011100111111111111111011001000000001100101110111111110010010110011110000011100 
00000001101010011010011111101101000000010010100111110101100011000000000010101010010000110010110000000000000000000000000000000000111111110101010110111100110101001111111011010110000010100111010011111110010101100101100000010011;