Running: xsim.dir/LDPC_SIMULATION_TOP_behav/xsimk.exe -simmode gui -wdb LDPC_SIMULATION_TOP_behav.wdb -simrunnum 0 -socket 56114
Design successfully loaded
Design Loading CPU Usage: 77 ms
Simulation completed
Simulation CPU Usage: 35389 ms
