00000100011111010000010001111101 
00000100011100000000010001110000 
00000100011000110000010001100011 
00000100010101100000010001010110 
00000100010010100000010001001010 
00000100001111010000010000111101 
00000100001100010000010000110001 
00000100001001000000010000100100 
00000100000110000000010000011000 
00000100000011000000010000001100 
00000100000000000000010000000000 
00000011111101010000001111110101 
00000011111010010000001111101001 
00000011110111010000001111011101 
00000011110100100000001111010010 
00000011110001110000001111000111 
00000011101111000000001110111100 
00000011101100010000001110110001 
00000011101001100000001110100110 
00000011100110110000001110011011 
00000011100100010000001110010001 
00000011100001100000001110000110 
00000011011111000000001101111100 
00000011011100100000001101110010 
00000011011010000000001101101000 
00000011010111100000001101011110 
00000011010101000000001101010100 
00000011010010100000001101001010 
00000011010000010000001101000001 
00000011001101110000001100110111 
00000011001011100000001100101110 
00000011001001000000001100100100 
00000011000110110000001100011011 
00000011000100100000001100010010 
00000011000010010000001100001001 
00000011000000000000001100000000 
00000010111101110000001011110111;